<svg width="19" height="20" viewBox="0 0 19 20" fill="none" xmlns="http://www.w3.org/2000/svg">
<rect x="5.05301" y="1.5" width="13.1262" height="14" rx="1" fill="white" stroke="#7C43BA" stroke-width="1.2"/>
<rect x="1.01416" y="4.5" width="13.6311" height="14.5" rx="1" fill="white" stroke="#7C43BA" stroke-width="1.2"/>
</svg>