<svg width="100" height="100" viewBox="0 0 100 100" fill="none" xmlns="http://www.w3.org/2000/svg">
    <g clip-path="url(#clip0)">
    <rect width="100" height="100" fill="white"/>
    <rect x="9" y="18.1398" width="76.5" height="73.9883" rx="4.5" fill="#ECECEC"/>
    <g filter="url(#filter0_d)">
    <rect x="64.4625" y="7.63824" width="27.3487" height="36.8191" rx="4.5" fill="white"/>
    <mask id="mask0" mask-type="alpha" maskUnits="userSpaceOnUse" x="64" y="7" width="28" height="38">
    <rect x="64.4625" y="7.63824" width="27.3487" height="36.8191" rx="4.5" fill="white"/>
    </mask>
    <g mask="url(#mask0)">
    <path d="M85.7228 20.8366V14.8575C85.7228 14.0691 85.0826 13.43 84.293 13.43H75.7142C72.5556 13.43 69.995 15.9864 69.995 19.1399V20.8366C69.995 21.6037 70.1189 22.3658 70.3619 23.0936L70.5999 23.8063C70.6727 24.0246 70.7099 24.2532 70.7099 24.4834V24.8497H85.0078V24.4834C85.0078 24.2532 85.0449 24.0246 85.1178 23.8063L85.3558 23.0936C85.5989 22.3657 85.7228 21.6036 85.7228 20.8366Z" fill="#694B4B"/>
    <rect x="73.5693" y="30.5598" width="8.57903" height="6.42333" fill="#FDE3C3"/>
    <path opacity="0.162784" d="M73.5695 32.9729C74.8324 33.7033 76.2945 34.1281 77.8589 34.1281C79.4233 34.1281 80.8854 33.7033 82.1482 32.9729V30.5595H73.5695L73.5695 32.9729Z" fill="black"/>
    <path d="M77.8589 32.7007C73.9107 32.7007 70.71 29.5052 70.71 25.5634V24.7272C70.71 24.3486 70.8606 23.9856 71.1287 23.7178L71.7209 23.1266C71.989 22.8589 72.1397 22.4958 72.1397 22.1172V20.4062C72.1397 20.0757 72.362 19.7886 72.6841 19.7126C74.3749 19.314 79.6363 18.3696 83.2169 20.9987C83.4494 21.1694 83.578 21.4498 83.578 21.738V22.1172C83.578 22.4957 83.7286 22.8588 83.9967 23.1266L84.5889 23.7178C84.857 23.9855 85.0077 24.3486 85.0077 24.7272V25.5634C85.0079 29.5052 81.8072 32.7007 77.8589 32.7007Z" fill="#FDE3C3"/>
    <path d="M88.1298 37.7271L82.1482 35.5555L77.8589 36.983L73.5696 35.5556L67.5881 37.7272C66.458 38.1375 65.7057 39.2097 65.7057 40.4102V44.8341C65.7057 45.2282 66.0257 45.5478 66.4206 45.5478H89.2972C89.6921 45.5478 90.0121 45.2282 90.0121 44.8341V40.4102C90.0121 39.2096 89.2599 38.1374 88.1298 37.7271Z" fill="#7C43BA"/>
    </g>
    </g>
    <rect x="14.7375" y="27.6867" width="41.1188" height="14.9568" rx="3.6" fill="#7C43BA"/>
    <rect opacity="0.236584" x="19.0406" y="31.0281" width="19.4438" height="3.50052" rx="1.75026" fill="white"/>
    <rect x="14.7375" y="49.1671" width="54.9844" height="14.9568" rx="3.6" fill="white"/>
    <rect opacity="0.236584" x="19.0406" y="52.5085" width="19.4438" height="3.50052" rx="1.75026" fill="#515151"/>
    <rect x="14.7375" y="70.1703" width="39.6844" height="14.9568" rx="3.6" fill="white"/>
    <rect opacity="0.236584" x="19.0406" y="73.5117" width="10.8375" height="3.50052" rx="1.75026" fill="#515151"/>
    </g>
    <defs>
    <filter id="filter0_d" x="52.4625" y="-2.36176" width="51.3487" height="60.8191" filterUnits="userSpaceOnUse" color-interpolation-filters="sRGB">
    <feFlood flood-opacity="0" result="BackgroundImageFix"/>
    <feColorMatrix in="SourceAlpha" type="matrix" values="0 0 0 0 0 0 0 0 0 0 0 0 0 0 0 0 0 0 127 0" result="hardAlpha"/>
    <feOffset dy="2"/>
    <feGaussianBlur stdDeviation="6"/>
    <feColorMatrix type="matrix" values="0 0 0 0 0.770296 0 0 0 0 0.770296 0 0 0 0 0.770296 0 0 0 0.5 0"/>
    <feBlend mode="normal" in2="BackgroundImageFix" result="effect1_dropShadow"/>
    <feBlend mode="normal" in="SourceGraphic" in2="effect1_dropShadow" result="shape"/>
    </filter>
    <clipPath id="clip0">
    <rect width="100" height="100" fill="white"/>
    </clipPath>
    </defs>
</svg>